<?xml version="1.0" encoding="UTF-8" standalone="no"?>
<!-- Generator: Adobe Illustrator 16.0.0, SVG Export Plug-In . SVG Version: 6.00 Build 0)  -->

<svg
   version="1.1"
   id="Layer_1"
   x="0px"
   y="0px"
   width="640px"
   height="480px"
   viewBox="0 0 640 480"
   enable-background="new 0 0 640 480"
   xml:space="preserve"
   sodipodi:docname="emma_Ice_grub.svg"
   inkscape:version="1.1.1 (3bf5ae0d25, 2021-09-20)"
   xmlns:inkscape="http://www.inkscape.org/namespaces/inkscape"
   xmlns:sodipodi="http://sodipodi.sourceforge.net/DTD/sodipodi-0.dtd"
   xmlns:xlink="http://www.w3.org/1999/xlink"
   xmlns="http://www.w3.org/2000/svg"
   xmlns:svg="http://www.w3.org/2000/svg"><defs
   id="defs203" /><sodipodi:namedview
   id="namedview201"
   pagecolor="#ffffff"
   bordercolor="#666666"
   borderopacity="1.0"
   inkscape:pageshadow="2"
   inkscape:pageopacity="0.0"
   inkscape:pagecheckerboard="0"
   showgrid="false"
   inkscape:zoom="1.8708867"
   inkscape:cx="255.76107"
   inkscape:cy="452.7265"
   inkscape:window-width="1680"
   inkscape:window-height="997"
   inkscape:window-x="0"
   inkscape:window-y="25"
   inkscape:window-maximized="1"
   inkscape:current-layer="Layer_1" />
<g
   id="g198"
   inkscape:export-filename="/home/emmabuntus/Travail/EmmaDE5_64/emmabuntus_de_4/Ecrans/Fond_ecran_demarrage/theme_ice-main/PNG/Emma_Grub.png"
   inkscape:export-xdpi="96"
   inkscape:export-ydpi="96">
	<defs
   id="defs3">
		<rect
   id="SVGID_1_"
   width="640"
   height="480" />
	</defs>
	<clipPath
   id="SVGID_2_">
		<use
   xlink:href="#SVGID_1_"
   overflow="visible"
   id="use5" />
	</clipPath>
	<g
   id="BACK"
   clip-path="url(#SVGID_2_)">
		
			<linearGradient
   id="SVGID_3_"
   gradientUnits="userSpaceOnUse"
   x1="-240.79"
   y1="135.6377"
   x2="232.2944"
   y2="-489.7966"
   gradientTransform="matrix(1.1562 0.0057 0.0052 -1.0692 292.1908 89.1195)">
			<stop
   offset="0"
   style="stop-color:#689CAE"
   id="stop8" />
			<stop
   offset="0.1409"
   style="stop-color:#48839E"
   id="stop10" />
			<stop
   offset="0.3129"
   style="stop-color:#276A8E"
   id="stop12" />
			<stop
   offset="0.4567"
   style="stop-color:#135B84"
   id="stop14" />
			<stop
   offset="0.5538"
   style="stop-color:#0C5580"
   id="stop16" />
			<stop
   offset="0.5974"
   style="stop-color:#0A4E77"
   id="stop18" />
			<stop
   offset="0.7493"
   style="stop-color:#053A5E"
   id="stop20" />
			<stop
   offset="0.8878"
   style="stop-color:#012E4F"
   id="stop22" />
			<stop
   offset="1"
   style="stop-color:#002A4A"
   id="stop24" />
		</linearGradient>
		<path
   fill="url(#SVGID_3_)"
   d="M275.692,603.902c282.258,1.385,501.57-50.865,502.552-250.971    c0.98-200.107-53.937-453.833-481.409-455.931l1.114,0.006c-437.105-2.146-484.879,251.073-485.861,451.183    C-188.894,548.297,13.5,602.704,295.759,604.089L275.692,603.902z"
   id="path27" />
		
			<linearGradient
   id="SVGID_4_"
   gradientUnits="userSpaceOnUse"
   x1="178.7959"
   y1="1380.0127"
   x2="206.8228"
   y2="1976.067"
   gradientTransform="matrix(-1.1562 -0.0057 0.0047 -0.9483 545.4418 1602.8345)">
			<stop
   offset="0"
   style="stop-color:#00E3E0;stop-opacity:0"
   id="stop29" />
			<stop
   offset="0.1583"
   style="stop-color:#02E3E0;stop-opacity:0"
   id="stop31" />
			<stop
   offset="0.2153"
   style="stop-color:#09E4E0;stop-opacity:0"
   id="stop33" />
			<stop
   offset="0.256"
   style="stop-color:#14E6E0;stop-opacity:0"
   id="stop35" />
			<stop
   offset="0.2888"
   style="stop-color:#25E9E0;stop-opacity:0"
   id="stop37" />
			<stop
   offset="0.317"
   style="stop-color:#3BEDE0;stop-opacity:0"
   id="stop39" />
			<stop
   offset="0.3419"
   style="stop-color:#57F1E0;stop-opacity:0"
   id="stop41" />
			<stop
   offset="0.3644"
   style="stop-color:#77F6E0;stop-opacity:0"
   id="stop43" />
			<stop
   offset="0.3845"
   style="stop-color:#9BFCE0;stop-opacity:0"
   id="stop45" />
			<stop
   offset="0.3925"
   style="stop-color:#ACFFE0;stop-opacity:0"
   id="stop47" />
			<stop
   offset="0.6748"
   style="stop-color:#AEFEDE;stop-opacity:0.4647"
   id="stop49" />
			<stop
   offset="0.7764"
   style="stop-color:#B4FBD7;stop-opacity:0.632"
   id="stop51" />
			<stop
   offset="0.8489"
   style="stop-color:#C0F6CC;stop-opacity:0.7513"
   id="stop53" />
			<stop
   offset="0.9075"
   style="stop-color:#D0EEBB;stop-opacity:0.8478"
   id="stop55" />
			<stop
   offset="0.9571"
   style="stop-color:#E6E4A5;stop-opacity:0.9295"
   id="stop57" />
			<stop
   offset="1"
   style="stop-color:#FFD88B"
   id="stop59" />
		</linearGradient>
		<path
   fill="url(#SVGID_4_)"
   d="M345.929-271.465c-282.259-1.246-501.542,40.36-502.413,200.117    c-0.872,159.761,54.186,362.353,481.662,364.243l-1.113-0.006c437.105,1.932,484.739-200.208,485.61-359.97    c0.87-159.758-201.553-203.298-483.813-204.544L345.929-271.465z"
   id="path62" />
	</g>
	
		<radialGradient
   id="SVGID_5_"
   cx="1604.7031"
   cy="5343.8535"
   r="287.9439"
   gradientTransform="matrix(0.7151 -0.3862 -0.2431 -0.45 250.8104 3365.0273)"
   gradientUnits="userSpaceOnUse">
		<stop
   offset="0"
   style="stop-color:#FFD88B"
   id="stop65" />
		<stop
   offset="0.3109"
   style="stop-color:#ECE5A6;stop-opacity:0.7513"
   id="stop67" />
		<stop
   offset="1"
   style="stop-color:#C3FFE0;stop-opacity:0.2"
   id="stop69" />
	</radialGradient>
	<polygon
   opacity="0.2"
   clip-path="url(#SVGID_2_)"
   fill="url(#SVGID_5_)"
   enable-background="new    "
   points="-19.389,306.248    222.981,501.906 117.219,188.539 49.873,139.047  "
   id="polygon72" />
	
		<radialGradient
   id="SVGID_6_"
   cx="1602.543"
   cy="5133.0586"
   r="331.4886"
   gradientTransform="matrix(0.7151 -0.3862 -0.2431 -0.45 250.8104 3365.0273)"
   gradientUnits="userSpaceOnUse">
		<stop
   offset="0"
   style="stop-color:#FFD88B"
   id="stop74" />
		<stop
   offset="0.3109"
   style="stop-color:#ECE5A6;stop-opacity:0.7513"
   id="stop76" />
		<stop
   offset="1"
   style="stop-color:#C3FFE0;stop-opacity:0.2"
   id="stop78" />
	</radialGradient>
	<polygon
   opacity="0.2"
   clip-path="url(#SVGID_2_)"
   fill="url(#SVGID_6_)"
   enable-background="new    "
   points="180.763,683.908    157.064,633.276 28.496,395.219 117.123,188.592  "
   id="polygon81" />
	
		<radialGradient
   id="SVGID_7_"
   cx="1580.5605"
   cy="5202.2813"
   r="382.8058"
   gradientTransform="matrix(0.7151 -0.3862 -0.2431 -0.45 250.8104 3365.0273)"
   gradientUnits="userSpaceOnUse">
		<stop
   offset="0"
   style="stop-color:#FFD88B"
   id="stop83" />
		<stop
   offset="0.3109"
   style="stop-color:#ECE5A6;stop-opacity:0.7513"
   id="stop85" />
		<stop
   offset="1"
   style="stop-color:#C3FFE0;stop-opacity:0.2"
   id="stop87" />
	</radialGradient>
	<polygon
   opacity="0.2"
   clip-path="url(#SVGID_2_)"
   fill="url(#SVGID_7_)"
   enable-background="new    "
   points="183.014,688.078    150.723,621.533 -19.518,306.318 49.776,139.1  "
   id="polygon90" />
	
		<radialGradient
   id="SVGID_8_"
   cx="3347.3398"
   cy="1673.8955"
   r="301.6902"
   gradientTransform="matrix(0.1007 -0.8065 -0.5075 -0.0634 689.637 3231.5256)"
   gradientUnits="userSpaceOnUse">
		<stop
   offset="0"
   style="stop-color:#FFD88B"
   id="stop92" />
		<stop
   offset="0.3109"
   style="stop-color:#ECE5A6;stop-opacity:0.7513"
   id="stop94" />
		<stop
   offset="1"
   style="stop-color:#C3FFE0;stop-opacity:0.2"
   id="stop96" />
	</radialGradient>
	<polygon
   opacity="0.2"
   clip-path="url(#SVGID_2_)"
   fill="url(#SVGID_8_)"
   enable-background="new    "
   points="95.598,327.898    -19.518,306.318 130.722,465.199 373.942,545.223  "
   id="polygon99" />
	
		<radialGradient
   id="SVGID_9_"
   cx="-1311.6426"
   cy="4348.8574"
   r="336.7162"
   gradientTransform="matrix(0.6886 0.4317 0.2717 -0.4334 -189.0887 2589.9629)"
   gradientUnits="userSpaceOnUse">
		<stop
   offset="0"
   style="stop-color:#FFD88B"
   id="stop101" />
		<stop
   offset="0.3109"
   style="stop-color:#ECE5A6;stop-opacity:0.7513"
   id="stop103" />
		<stop
   offset="1"
   style="stop-color:#C3FFE0;stop-opacity:0.2"
   id="stop105" />
	</radialGradient>
	<polygon
   opacity="0.2"
   clip-path="url(#SVGID_2_)"
   fill="url(#SVGID_9_)"
   enable-background="new    "
   points="-84.271,314.835    128.297,-16.974 262.868,-36.971 171.441,108.711  "
   id="polygon108" />
	
		<radialGradient
   id="SVGID_10_"
   cx="-1232.7012"
   cy="4240.6182"
   r="276.6136"
   gradientTransform="matrix(0.6886 0.4317 0.2717 -0.4334 -189.0887 2589.9629)"
   gradientUnits="userSpaceOnUse">
		<stop
   offset="0"
   style="stop-color:#FFD88B"
   id="stop110" />
		<stop
   offset="0.3109"
   style="stop-color:#ECE5A6;stop-opacity:0.7513"
   id="stop112" />
		<stop
   offset="1"
   style="stop-color:#C3FFE0;stop-opacity:0.2"
   id="stop114" />
	</radialGradient>
	<polygon
   opacity="0.2"
   clip-path="url(#SVGID_2_)"
   fill="url(#SVGID_10_)"
   enable-background="new    "
   points="155.314,376.173    188.466,79.251 139.317,16.268 -84.271,314.835  "
   id="polygon117" />
	
		<radialGradient
   id="SVGID_11_"
   cx="-1329.2085"
   cy="-3812.167"
   r="249.2523"
   gradientTransform="matrix(-0.7856 0.2084 0.1312 0.4944 -504.4903 2292.1536)"
   gradientUnits="userSpaceOnUse">
		<stop
   offset="0"
   style="stop-color:#FFD88B"
   id="stop119" />
		<stop
   offset="0.3109"
   style="stop-color:#ECE5A6;stop-opacity:0.7513"
   id="stop121" />
		<stop
   offset="1"
   style="stop-color:#C3FFE0;stop-opacity:0.2"
   id="stop123" />
	</radialGradient>
	<polygon
   opacity="0.2"
   clip-path="url(#SVGID_2_)"
   fill="url(#SVGID_11_)"
   enable-background="new    "
   points="139.317,16.268    -84.271,314.835 214.958,140.164 133.914,-46.182  "
   id="polygon126" />
	
		<radialGradient
   id="SVGID_12_"
   cx="-1402.5332"
   cy="-3523.1064"
   r="227.9771"
   gradientTransform="matrix(-0.7856 0.2084 0.1312 0.4944 -504.4903 2292.1536)"
   gradientUnits="userSpaceOnUse">
		<stop
   offset="0"
   style="stop-color:#FFD88B"
   id="stop128" />
		<stop
   offset="0.3109"
   style="stop-color:#ECE5A6;stop-opacity:0.7513"
   id="stop130" />
		<stop
   offset="1"
   style="stop-color:#C3FFE0;stop-opacity:0.2"
   id="stop132" />
	</radialGradient>
	<polygon
   opacity="0.2"
   clip-path="url(#SVGID_2_)"
   fill="url(#SVGID_12_)"
   enable-background="new    "
   points="155.314,97.055    214.958,140.164 178.41,402.182 41.634,324.584  "
   id="polygon135" />
	<g
   clip-path="url(#SVGID_2_)"
   id="g195">
		<g
   opacity="0.8"
   id="g193">
			<g
   id="g191">
				<path
   fill="#FFFFFF"
   d="M81.493,344.83h5.016v1.039H82.7v2.438h3.547v1.035H82.7v2.449h3.855v1.039h-5.063L81.493,344.83      L81.493,344.83z"
   id="path137" />
				<path
   fill="#FFFFFF"
   d="M88.032,346.83h1.121v0.977h0.074c0.25-0.66,0.84-1.055,1.633-1.055c0.801,0,1.352,0.398,1.613,1.055      h0.063c0.289-0.641,0.938-1.055,1.801-1.055c1.086,0,1.852,0.684,1.852,2.055v4.023H95.02v-3.914      c0-0.813-0.508-1.156-1.125-1.156c-0.762,0-1.203,0.523-1.203,1.246v3.824h-1.164v-3.988c0-0.652-0.449-1.082-1.098-1.082      c-0.664,0-1.23,0.563-1.23,1.371v3.699h-1.168V346.83L88.032,346.83z"
   id="path139" />
				<path
   fill="#FFFFFF"
   d="M97.75,346.83h1.121v0.977h0.074c0.25-0.66,0.84-1.055,1.633-1.055c0.801,0,1.352,0.398,1.613,1.055      h0.063c0.289-0.641,0.938-1.055,1.801-1.055c1.086,0,1.852,0.684,1.852,2.055v4.023h-1.168v-3.914      c0-0.813-0.508-1.156-1.125-1.156c-0.762,0-1.203,0.523-1.203,1.246v3.824h-1.164v-3.988c0-0.652-0.449-1.082-1.098-1.082      c-0.664,0-1.23,0.563-1.23,1.371v3.699H97.75V346.83z"
   id="path141" />
				<path
   fill="#FFFFFF"
   d="M107.187,351.135c0-1.363,1.164-1.66,2.301-1.793c1.078-0.125,1.516-0.117,1.516-0.543v-0.027      c0-0.68-0.387-1.073-1.141-1.073c-0.785,0-1.223,0.409-1.395,0.836l-1.098-0.25c0.391-1.095,1.391-1.531,2.477-1.531      c0.953,0,2.328,0.349,2.328,2.095v3.983h-1.141v-0.82h-0.047c-0.223,0.449-0.781,0.953-1.773,0.953      C108.074,352.963,107.187,352.314,107.187,351.135z M111.007,350.666v-0.773c-0.168,0.168-1.066,0.271-1.445,0.32      c-0.676,0.09-1.23,0.313-1.23,0.938c0,0.578,0.477,0.875,1.137,0.875C110.441,352.025,111.007,351.377,111.007,350.666z"
   id="path143" />
				<path
   fill="#FFFFFF"
   d="M113.824,344.83h1.168v2.973h0.07c0.207-0.371,0.609-1.051,1.723-1.051c1.449,0,2.52,1.145,2.52,3.09      c0,1.941-1.055,3.105-2.508,3.105c-1.094,0-1.523-0.668-1.734-1.051h-0.098v0.934h-1.141V344.83L113.824,344.83z       M116.535,351.951c1.043,0,1.59-0.918,1.59-2.121c0-1.191-0.531-2.086-1.59-2.086c-1.02,0-1.566,0.832-1.566,2.086      C114.968,351.092,115.531,351.951,116.535,351.951z"
   id="path145" />
				<path
   fill="#FFFFFF"
   d="M124.413,346.83h1.172v6h-1.148v-1.039h-0.063c-0.277,0.641-0.891,1.117-1.793,1.117      c-1.152,0-1.969-0.773-1.969-2.262v-3.816h1.168v3.676c0,0.816,0.5,1.34,1.223,1.34c0.656,0,1.414-0.484,1.41-1.504V346.83z"
   id="path147" />
				<path
   fill="#FFFFFF"
   d="M128.319,352.83h-1.168v-6h1.121v0.977h0.074c0.277-0.637,0.867-1.055,1.77-1.055      c1.227,0,2.043,0.777,2.043,2.262v3.816h-1.168v-3.676c0-0.871-0.48-1.391-1.273-1.391c-0.813,0-1.398,0.547-1.398,1.504      L128.319,352.83L128.319,352.83z"
   id="path149" />
				<path
   fill="#FFFFFF"
   d="M136.521,347.768h-1.23v3.301c0,0.677,0.34,0.802,0.719,0.802c0.188,0,0.332-0.035,0.41-0.052      l0.211,0.966c-0.137,0.051-0.387,0.12-0.758,0.125c-0.922,0.021-1.754-0.509-1.75-1.599v-3.543h-0.879v-0.938h0.879v-1.438      h1.168v1.438h1.23V347.768z"
   id="path151" />
				<path
   fill="#FFFFFF"
   d="M141.611,346.83h1.172v6h-1.148v-1.039h-0.063c-0.277,0.641-0.891,1.117-1.793,1.117      c-1.152,0-1.969-0.773-1.969-2.262v-3.816h1.168v3.676c0,0.816,0.5,1.34,1.223,1.34c0.656,0,1.414-0.484,1.41-1.504V346.83      L141.611,346.83z M138.466,345.209c0-0.387,0.324-0.684,0.691-0.684c0.391,0,0.688,0.297,0.688,0.684      c0,0.363-0.297,0.68-0.688,0.68C138.791,345.889,138.466,345.572,138.466,345.209z M140.763,345.209      c0-0.387,0.324-0.684,0.691-0.684c0.391,0,0.688,0.297,0.688,0.684c0,0.363-0.297,0.68-0.688,0.68      C141.087,345.889,140.763,345.572,140.763,345.209z"
   id="path153" />
				<path
   fill="#FFFFFF"
   d="M147.786,348.482c-0.137-0.402-0.473-0.806-1.199-0.806c-0.664,0-1.164,0.328-1.16,0.789      c-0.004,0.406,0.281,0.63,0.941,0.785l0.953,0.22c1.102,0.254,1.641,0.776,1.641,1.625c0,1.086-1.004,1.854-2.453,1.854      c-1.348,0-2.23-0.599-2.426-1.66l1.129-0.172c0.141,0.59,0.59,0.891,1.289,0.891c0.766,0,1.262-0.362,1.262-0.827      c0-0.375-0.27-0.634-0.848-0.763l-1.016-0.224c-1.125-0.25-1.641-0.815-1.641-1.668c0-1.063,0.961-1.776,2.316-1.776      c1.297,0,2.027,0.608,2.27,1.543L147.786,348.482z"
   id="path155" />
				<path
   fill="#FFFFFF"
   d="M153.157,346.83h1.141v0.973h0.098c0.207-0.371,0.609-1.051,1.723-1.051c1.449,0,2.52,1.145,2.52,3.09      c0,1.941-1.055,3.105-2.508,3.105c-1.094,0-1.523-0.668-1.734-1.051h-0.07v3.184h-1.168v-8.25H153.157z M155.868,351.951      c1.043,0,1.59-0.918,1.59-2.121c0-1.191-0.531-2.086-1.59-2.086c-1.02,0-1.566,0.832-1.566,2.086      C154.301,351.092,154.864,351.951,155.868,351.951z"
   id="path157" />
				<path
   fill="#FFFFFF"
   d="M159.676,349.857c0-1.867,1.105-3.105,2.797-3.105s2.797,1.238,2.797,3.105      c0,1.854-1.105,3.094-2.797,3.094S159.676,351.713,159.676,349.857z M164.09,349.854c0-1.147-0.516-2.125-1.613-2.125      c-1.105,0-1.621,0.978-1.621,2.125c0,1.152,0.516,2.117,1.621,2.117C163.574,351.971,164.09,351.006,164.09,349.854z"
   id="path159" />
				<path
   fill="#FFFFFF"
   d="M165.921,346.83h1.207l1.176,4.406h0.059l1.18-4.406h1.207l1.172,4.387h0.059l1.168-4.387h1.207      l-1.762,6h-1.191l-1.219-4.332h-0.09l-1.219,4.332h-1.188L165.921,346.83z"
   id="path161" />
				<path
   fill="#FFFFFF"
   d="M175.007,349.869c0-1.844,1.102-3.117,2.773-3.117c1.359,0,2.656,0.848,2.656,3.016v0.414h-4.266      c0.031,1.156,0.703,1.805,1.703,1.805c0.664,0,1.172-0.289,1.383-0.854l1.105,0.199c-0.266,0.978-1.191,1.621-2.5,1.621      C176.093,352.951,175.007,351.732,175.007,349.869z M179.292,349.307c-0.004-0.918-0.598-1.59-1.504-1.59      c-0.949,0-1.566,0.738-1.613,1.59H179.292z"
   id="path163" />
				<path
   fill="#FFFFFF"
   d="M181.737,346.83h1.129v0.953h0.063c0.219-0.645,0.82-1.043,1.523-1.043c0.148,0,0.379,0.012,0.496,0.027      v1.116c-0.094-0.026-0.367-0.069-0.609-0.069c-0.828,0-1.434,0.565-1.434,1.352v3.664h-1.168V346.83z"
   id="path165" />
				<path
   fill="#FFFFFF"
   d="M185.476,349.869c0-1.844,1.102-3.117,2.773-3.117c1.359,0,2.656,0.848,2.656,3.016v0.414h-4.266      c0.031,1.156,0.703,1.805,1.703,1.805c0.664,0,1.172-0.289,1.383-0.854l1.105,0.199c-0.266,0.978-1.191,1.621-2.5,1.621      C186.562,352.951,185.476,351.732,185.476,349.869z M189.761,349.307c-0.004-0.918-0.598-1.59-1.504-1.59      c-0.949,0-1.566,0.738-1.613,1.59H189.761z"
   id="path167" />
				<path
   fill="#FFFFFF"
   d="M191.944,349.842c0-1.945,1.066-3.09,2.516-3.09c1.117,0,1.516,0.68,1.727,1.051h0.07v-2.973h1.168v8      h-1.141v-0.934h-0.098c-0.211,0.383-0.641,1.051-1.734,1.051C192.995,352.947,191.944,351.783,191.944,349.842z M196.276,349.83      c0-1.254-0.547-2.086-1.566-2.086c-1.055,0-1.586,0.895-1.586,2.086c0,1.203,0.543,2.121,1.586,2.121      C195.717,351.951,196.276,351.092,196.276,349.83z"
   id="path169" />
				<path
   fill="#FFFFFF"
   d="M202.096,344.83h1.168v2.973h0.07c0.207-0.371,0.609-1.051,1.723-1.051c1.449,0,2.52,1.145,2.52,3.09      c0,1.941-1.055,3.105-2.508,3.105c-1.094,0-1.523-0.668-1.734-1.051h-0.098v0.934h-1.141V344.83z M204.807,351.951      c1.043,0,1.59-0.918,1.59-2.121c0-1.191-0.531-2.086-1.59-2.086c-1.02,0-1.566,0.832-1.566,2.086      C203.24,351.092,203.803,351.951,204.807,351.951z"
   id="path171" />
				<path
   fill="#FFFFFF"
   d="M208.615,354.951l0.281-0.957c0.641,0.176,1.059,0.109,1.355-0.688l0.145-0.398l-2.195-6.078h1.25      l1.52,4.656h0.063l1.52-4.656h1.254l-2.473,6.801c-0.348,0.945-0.957,1.449-1.922,1.449      C209.06,355.08,208.755,355.014,208.615,354.951z"
   id="path173" />
				<path
   fill="#FFFFFF"
   d="M217.911,352.83v-8h2.672c2.355,0,3.766,1.5,3.766,3.988c0,2.5-1.41,4.012-3.848,4.012H217.911z       M220.435,351.775c1.824,0,2.727-1.063,2.727-2.957c0-1.887-0.902-2.935-2.652-2.935h-1.391v5.892H220.435z"
   id="path175" />
				<path
   fill="#FFFFFF"
   d="M225.485,349.869c0-1.844,1.102-3.117,2.773-3.117c1.359,0,2.656,0.848,2.656,3.016v0.414h-4.266      c0.031,1.156,0.703,1.805,1.703,1.805c0.664,0,1.172-0.289,1.383-0.854l1.105,0.199c-0.266,0.978-1.191,1.621-2.5,1.621      C226.571,352.951,225.485,351.732,225.485,349.869z M229.77,349.307c-0.004-0.918-0.598-1.59-1.504-1.59      c-0.949,0-1.566,0.738-1.613,1.59H229.77z"
   id="path177" />
				<path
   fill="#FFFFFF"
   d="M232.309,344.83h1.168v2.973h0.07c0.207-0.371,0.609-1.051,1.723-1.051c1.449,0,2.52,1.145,2.52,3.09      c0,1.941-1.055,3.105-2.508,3.105c-1.094,0-1.523-0.668-1.734-1.051h-0.098v0.934h-1.141V344.83z M235.02,351.951      c1.043,0,1.59-0.918,1.59-2.121c0-1.191-0.531-2.086-1.59-2.086c-1.02,0-1.566,0.832-1.566,2.086      C233.453,351.092,234.016,351.951,235.02,351.951z"
   id="path179" />
				<path
   fill="#FFFFFF"
   d="M238.949,345.209c0-0.383,0.332-0.699,0.738-0.699c0.402,0,0.738,0.316,0.738,0.699      s-0.336,0.695-0.738,0.695C239.281,345.904,238.949,345.592,238.949,345.209z M239.097,346.83h1.168v6h-1.168V346.83z"
   id="path181" />
				<path
   fill="#FFFFFF"
   d="M241.554,351.135c0-1.363,1.164-1.66,2.301-1.793c1.078-0.125,1.516-0.117,1.516-0.543v-0.027      c0-0.68-0.387-1.073-1.141-1.073c-0.785,0-1.223,0.409-1.395,0.836l-1.098-0.25c0.391-1.095,1.391-1.531,2.477-1.531      c0.953,0,2.328,0.349,2.328,2.095v3.983h-1.141v-0.82h-0.047c-0.223,0.449-0.781,0.953-1.773,0.953      C242.441,352.963,241.554,352.314,241.554,351.135z M245.375,350.666v-0.773c-0.168,0.168-1.066,0.271-1.445,0.32      c-0.676,0.09-1.23,0.313-1.23,0.938c0,0.578,0.477,0.875,1.137,0.875C244.808,352.025,245.375,351.377,245.375,350.666z"
   id="path183" />
				<path
   fill="#FFFFFF"
   d="M249.265,352.83h-1.168v-6h1.121v0.977h0.074c0.277-0.637,0.867-1.055,1.77-1.055      c1.227,0,2.043,0.777,2.043,2.262v3.816h-1.168v-3.676c0-0.871-0.48-1.391-1.273-1.391c-0.813,0-1.398,0.547-1.398,1.504      L249.265,352.83L249.265,352.83z"
   id="path185" />
				
				
			</g>
		</g>
	</g>
	<path
   id="SHAPE"
   opacity="0.8"
   clip-path="url(#SVGID_2_)"
   fill="#FFFFFF"
   enable-background="new    "
   d="M68.446,361.831   c-0.552-0.058-1.111-0.269-1.565-0.591c-0.241-0.172-0.57-0.502-0.742-0.743c-0.074-0.104-0.19-0.3-0.258-0.435   c-0.068-0.133-0.136-0.244-0.15-0.244s-0.148,0.035-0.299,0.078c-1.346,0.381-2.781,0.494-4.182,0.33   c-2.152-0.25-4.145-1.125-5.79-2.545c-0.341-0.293-0.929-0.888-1.198-1.211c-0.812-0.975-1.478-2.135-1.871-3.259   c-0.046-0.132-0.092-0.244-0.103-0.251c-0.012-0.007-0.067-0.005-0.124,0.005c-0.154,0.026-0.698,0.025-0.881-0.003   c-0.664-0.1-1.292-0.402-1.775-0.861c-0.495-0.47-0.831-1.095-0.958-1.779c-0.056-0.303-0.051-0.86,0.009-1.163   c0.16-0.798,0.597-1.496,1.238-1.979c0.23-0.175,0.659-0.4,0.925-0.486c0.383-0.125,0.852-0.182,1.253-0.148   c0.134,0.012,0.25,0.014,0.258,0.005c0.009-0.009,0.057-0.136,0.107-0.282c0.8-2.336,2.364-4.299,4.475-5.615   c2.382-1.486,5.285-1.978,8.052-1.361c0.149,0.033,0.313,0.074,0.367,0.09c0.053,0.016,0.105,0.023,0.115,0.018   c0.01-0.006,0.058-0.09,0.106-0.187c0.048-0.095,0.144-0.257,0.212-0.36c0.167-0.252,0.597-0.684,0.853-0.854   c0.969-0.646,2.169-0.736,3.211-0.241c0.913,0.437,1.559,1.267,1.777,2.291c0.061,0.284,0.066,0.886,0.01,1.187   c-0.1,0.537-0.333,1.048-0.667,1.464c-0.057,0.069-0.104,0.138-0.104,0.149s0.037,0.065,0.083,0.121   c0.788,0.948,1.462,2.18,1.871,3.416c0.625,1.893,0.688,4.008,0.177,5.961c-0.336,1.288-0.965,2.596-1.752,3.641   c-0.087,0.115-0.159,0.221-0.159,0.229c0,0.013,0.081,0.112,0.181,0.224c0.698,0.783,0.979,1.789,0.786,2.805   c-0.079,0.408-0.292,0.904-0.542,1.255C70.73,361.422,69.569,361.949,68.446,361.831L68.446,361.831z M69.146,360.886   c0.738-0.129,1.351-0.586,1.682-1.255c0.179-0.359,0.252-0.709,0.234-1.113c-0.012-0.298-0.054-0.5-0.156-0.762   c-0.431-1.105-1.642-1.703-2.783-1.372c-0.78,0.226-1.377,0.847-1.597,1.662c-0.046,0.17-0.051,0.226-0.051,0.558   c-0.001,0.338,0.004,0.387,0.052,0.564c0.114,0.42,0.299,0.75,0.593,1.051c0.348,0.355,0.765,0.578,1.248,0.665   C68.58,360.923,68.929,360.923,69.146,360.886L69.146,360.886z M63.323,356.781c0.55-0.065,1.046-0.178,1.555-0.352   c2.538-0.865,4.41-3.098,4.793-5.719c0.208-1.413-0.007-2.834-0.618-4.104c-0.358-0.741-0.756-1.311-1.33-1.899   c-0.469-0.479-0.92-0.839-1.48-1.175c-2.556-1.533-5.86-1.335-8.205,0.49c-0.888,0.691-1.558,1.513-2.05,2.511   c-0.359,0.728-0.563,1.399-0.682,2.241c-0.05,0.356-0.05,1.418,0,1.771c0.273,1.928,1.195,3.545,2.698,4.73   c0.852,0.675,1.974,1.191,3.026,1.396c0.406,0.079,0.503,0.092,1.067,0.143C62.282,356.834,63.073,356.811,63.323,356.781   L63.323,356.781z M61.947,355.273c-1.335-0.125-2.563-0.697-3.498-1.633c-0.672-0.673-1.162-1.502-1.424-2.41   c-0.043-0.146-0.061-0.237-0.048-0.252c0.022-0.022,2.588-0.039,2.619-0.016c0.012,0.01,0.056,0.077,0.097,0.151   c0.233,0.422,0.578,0.813,0.939,1.067c0.214,0.149,0.589,0.338,0.837,0.418c0.354,0.115,0.48,0.133,0.947,0.133   c0.473,0,0.658-0.027,1.015-0.152c0.886-0.313,1.598-1.023,1.903-1.905c0.119-0.345,0.161-0.6,0.161-1.001   c0-0.406-0.032-0.617-0.148-0.979c-0.352-1.075-1.285-1.881-2.401-2.072c-0.314-0.053-0.741-0.055-1.05-0.001   c-0.932,0.159-1.733,0.737-2.2,1.586c-0.042,0.076-0.086,0.146-0.098,0.153c-0.029,0.021-2.586,0.02-2.618,0   c-0.019-0.014-0.012-0.063,0.034-0.225c0.752-2.682,3.375-4.414,6.138-4.054c1.324,0.172,2.571,0.824,3.447,1.803   c0.794,0.888,1.266,1.929,1.421,3.14c0.015,0.115,0.025,0.396,0.024,0.668c-0.001,0.518-0.037,0.83-0.147,1.285   c-0.55,2.277-2.423,3.955-4.761,4.267C62.85,355.285,62.215,355.3,61.947,355.273z M52.103,352.076   c0.848-0.146,1.547-0.743,1.82-1.557c0.369-1.103-0.129-2.314-1.165-2.834c-0.648-0.324-1.405-0.324-2.053,0   c-0.547,0.274-0.969,0.762-1.164,1.344c-0.369,1.101,0.129,2.313,1.164,2.832C51.135,352.077,51.641,352.154,52.103,352.076   L52.103,352.076z M68.714,342.967c0.737-0.119,1.376-0.589,1.71-1.256c0.374-0.744,0.313-1.634-0.16-2.33   c-0.19-0.279-0.532-0.582-0.843-0.744c-1.157-0.602-2.589-0.141-3.172,1.021c-0.373,0.744-0.313,1.634,0.16,2.331   c0.113,0.165,0.356,0.415,0.533,0.548C67.441,342.91,68.091,343.066,68.714,342.967z" />
</g>
<text
   xml:space="preserve"
   style="font-size:10.6667px;line-height:1.25;font-family:'Alegreya SC';-inkscape-font-specification:'Alegreya SC';fill:#cedde6;fill-opacity:1"
   x="257.30743"
   y="352.85568"
   id="text1638"
   inkscape:export-filename="/home/emmabuntus/Travail/EmmaDE5_64/emmabuntus_de_4/Ecrans/Fond_ecran_demarrage/theme_ice-main/PNG/Emma_Grub.png"
   inkscape:export-xdpi="96"
   inkscape:export-ydpi="96"><tspan
     sodipodi:role="line"
     id="tspan1636"
     x="257.30743"
     y="352.85568"
     style="font-style:normal;font-variant:normal;font-weight:normal;font-stretch:normal;font-size:10.6667px;font-family:Inter;-inkscape-font-specification:Inter;fill:#cedde6;fill-opacity:1">12</tspan></text></svg>
